…
---

    Code
      res$ard
    Output
      $tbl_hierarchical
      # A tibble: 81 x 14
      # Groups:   group1_level [4]
         group1 group1_level group2 group2_level variable variable_level context     
         <chr>  <list>       <chr>  <list>       <chr>    <list>         <chr>       
       1 ARM    <fct [1]>    <NA>   <NULL>       AESOC    <fct [1]>      hierarchical
       2 ARM    <fct [1]>    <NA>   <NULL>       AESOC    <fct [1]>      hierarchical
       3 ARM    <fct [1]>    <NA>   <NULL>       AESOC    <fct [1]>      hierarchical
       4 ARM    <fct [1]>    <NA>   <NULL>       AESOC    <fct [1]>      hierarchical
       5 ARM    <fct [1]>    <NA>   <NULL>       AESOC    <fct [1]>      hierarchical
       6 ARM    <fct [1]>    <NA>   <NULL>       AESOC    <fct [1]>      hierarchical
       7 ARM    <fct [1]>    <NA>   <NULL>       AESOC    <fct [1]>      hierarchical
       8 ARM    <fct [1]>    <NA>   <NULL>       AESOC    <fct [1]>      hierarchical
       9 ARM    <fct [1]>    <NA>   <NULL>       AESOC    <fct [1]>      hierarchical
      10 ARM    <fct [1]>    <NA>   <NULL>       AESOC    <fct [1]>      hierarchical
      # i 71 more rows
      # i 7 more variables: stat_name <chr>, stat_label <chr>, stat <list>,
      #   fmt_fn <list>, warning <list>, error <list>, gts_column <chr>
…
