Pre-Process alt_counts_df for Safety Population — alt_counts_df_preproc • falcon
…
    If alt_counts_df is not NULL, will check for required variables and filter
to include only safety population, then apply tern::df_explicit_na().

alt_counts_df_preproc(alt_counts_df)

    Arguments

    alt_counts_df
(character) alternative (full) dataset (typically ADSL) used only to calculate column counts.

    Examples

adsl <- scda::synthetic_cdisc_dataset("rcd_2022_10_13", "adsl")
alt_counts_df_preproc(adsl)
#> # A tibble: 400 × 56
#>    STUDYID USUBJID    SUBJID SITEID   AGE AGEU  SEX   RACE  ETHNIC COUNTRY DTHFL
#>    <fct>   <fct>      <fct>  <fct>  <int> <fct> <fct> <fct> <fct>  <fct>   <fct>
#>  1 AB12345 AB12345-C… id-128 CHN-3     32 YEARS M     ASIAN HISPA… CHN     Y    
#>  2 AB12345 AB12345-C… id-262 CHN-15    35 YEARS M     BLAC… NOT H… CHN     N    
#>  3 AB12345 AB12345-R… id-378 RUS-3     30 YEARS F     ASIAN NOT H… RUS     N    
#>  4 AB12345 AB12345-C… id-220 CHN-11    26 YEARS F     ASIAN NOT H… CHN     N    
#>  5 AB12345 AB12345-C… id-267 CHN-7     40 YEARS M     ASIAN NOT H… CHN     N    
#>  6 AB12345 AB12345-C… id-201 CHN-15    49 YEARS M     ASIAN NOT H… CHN     Y    
#>  7 AB12345 AB12345-U… id-45  USA-1     34 YEARS F     ASIAN NOT H… USA     N    
#>  8 AB12345 AB12345-U… id-261 USA-1     32 YEARS F     ASIAN NOT H… USA     N    
#>  9 AB12345 AB12345-N… id-173 NGA-11    24 YEARS F     BLAC… NOT H… NGA     N    
#> 10 AB12345 AB12345-C… id-307 CHN-1     24 YEARS M     ASIAN NOT H… CHN     Y    
#> # ℹ 390 more rows
#> # ℹ 45 more variables: INVID <fct>, INVNAM <fct>, ARM <fct>, ARMCD <fct>,
#> #   ACTARM <fct>, ACTARMCD <fct>, TRT01P <fct>, TRT01A <fct>, TRT02P <fct>,
#> #   TRT02A <fct>, REGION1 <fct>, STRATA1 <fct>, STRATA2 <fct>, BMRKR1 <dbl>,
#> #   BMRKR2 <fct>, ITTFL <fct>, SAFFL <fct>, BMEASIFL <fct>, BEP01FL <fct>,
#> #   AEWITHFL <fct>, RANDDT <date>, TRTSDTM <dttm>, TRTEDTM <dttm>,
#> #   TRT01SDTM <dttm>, TRT01EDTM <dttm>, TRT02SDTM <dttm>, TRT02EDTM <dttm>, …
…
